<svg xmlns="http://www.w3.org/2000/svg" width="156" height="57" viewBox="0 0 156 57">
  <text id="SAMPLE" transform="translate(0 45)" fill="#4a2396" font-size="39" font-family="NotoSansCJKjp-Bold, Noto Sans CJK JP" font-weight="700"><tspan x="0" y="0">SAMPLE</tspan></text>
</svg>
